module gitlab.com/goxp/cloud0

go 1.21

require (
	github.com/caarlos0/env/v6 v6.6.2
	github.com/gin-gonic/gin v1.9.1
	github.com/go-errors/errors v1.4.0
	github.com/go-playground/validator/v10 v10.15.1
	github.com/google/uuid v1.2.0
	github.com/sirupsen/logrus v1.8.1
	github.com/stretchr/testify v1.8.4
	gorm.io/driver/postgres v1.1.0
	gorm.io/driver/sqlite v1.1.4
	gorm.io/gorm v1.21.11
)

require (
	github.com/bytedance/sonic v1.10.0 // indirect
	github.com/chenzhuoyu/base64x v0.0.0-20230717121745-296ad89f973d // indirect
	github.com/chenzhuoyu/iasm v0.9.0 // indirect
	github.com/davecgh/go-spew v1.1.1 // indirect
	github.com/gabriel-vasile/mimetype v1.4.2 // indirect
	github.com/gin-contrib/sse v0.1.0 // indirect
	github.com/go-playground/locales v0.14.1 // indirect
	github.com/go-playground/universal-translator v0.18.1 // indirect
	github.com/goccy/go-json v0.10.2 // indirect
	github.com/jackc/chunkreader/v2 v2.0.1 // indirect
	github.com/jackc/pgconn v1.8.1 // indirect
	github.com/jackc/pgio v1.0.0 // indirect
	github.com/jackc/pgpassfile v1.0.0 // indirect
	github.com/jackc/pgproto3/v2 v2.0.6 // indirect
	github.com/jackc/pgservicefile v0.0.0-20200714003250-2b9c44734f2b // indirect
	github.com/jackc/pgtype v1.7.0 // indirect
	github.com/jackc/pgx/v4 v4.11.0 // indirect
	github.com/jinzhu/inflection v1.0.0 // indirect
	github.com/jinzhu/now v1.1.2 // indirect
	github.com/json-iterator/go v1.1.12 // indirect
	github.com/klauspost/cpuid/v2 v2.2.5 // indirect
	github.com/leodido/go-urn v1.2.4 // indirect
	github.com/mattn/go-isatty v0.0.19 // indirect
	github.com/mattn/go-sqlite3 v1.14.5 // indirect
	github.com/modern-go/concurrent v0.0.0-20180306012644-bacd9c7ef1dd // indirect
	github.com/modern-go/reflect2 v1.0.2 // indirect
	github.com/pelletier/go-toml/v2 v2.0.9 // indirect
	github.com/pmezard/go-difflib v1.0.0 // indirect
	github.com/twitchyliquid64/golang-asm v0.15.1 // indirect
	github.com/ugorji/go/codec v1.2.11 // indirect
	golang.org/x/arch v0.4.0 // indirect
	golang.org/x/crypto v0.12.0 // indirect
	golang.org/x/net v0.14.0 // indirect
	golang.org/x/sys v0.11.0 // indirect
	golang.org/x/text v0.12.0 // indirect
	google.golang.org/protobuf v1.31.0 // indirect
	gopkg.in/yaml.v3 v3.0.1 // indirect
)
